{
  "project_info": {
    "project_id": "localramu-1199",
    "project_number": "714527511057",
    "name": "LocalRamu"
  },
  "client": [
    {
      "client_info": {
        "mobilesdk_app_id": "1:714527511057:android:256ffad8c3adebf0",
        "client_id": "android:com.localramu.partner.app",
        "client_type": 1,
        "android_client_info": {
          "package_name": "com.localramu.partner.app"
        }
      },
      "oauth_client": [
        {
          "client_id": "714527511057-cjfrj07noq3ajgma2ovbklanhs6u6go7.apps.googleusercontent.com",
          "client_type": 3
        }
      ],
      "api_key": [],
      "services": {
        "analytics_service": {
          "status": 1
        },
        "cloud_messaging_service": {
          "status": 2,
          "apns_config": []
        },
        "appinvite_service": {
          "status": 1,
          "other_platform_oauth_client": []
        },
        "google_signin_service": {
          "status": 1
        },
        "ads_service": {
          "status": 1
        }
      }
    },
    {
      "client_info": {
        "mobilesdk_app_id": "1:714527511057:android:2e043056887b787f",
        "client_id": "android:com.localramu.android.app",
        "client_type": 1,
        "android_client_info": {
          "package_name": "com.localramu.android.app"
        }
      },
      "oauth_client": [
        {
          "client_id": "714527511057-lnqtmbe2kiivva7iuska8ii20girbmje.apps.googleusercontent.com",
          "client_type": 1,
          "android_info": {
            "package_name": "com.localramu.android.app",
            "certificate_hash": "C2132F0039B878F8398585B2EF7C604D2C7C9034"
          }
        },
        {
          "client_id": "714527511057-1vgmtq99m4ttnerqpliqlrvc426r9dfr.apps.googleusercontent.com",
          "client_type": 1,
          "android_info": {
            "package_name": "com.localramu.android.app",
            "certificate_hash": "05C26DE7503A632104B76C6C20CB2B243EBE8537"
          }
        },
        {
          "client_id": "714527511057-cjfrj07noq3ajgma2ovbklanhs6u6go7.apps.googleusercontent.com",
          "client_type": 3
        }
      ],
      "api_key": [],
      "services": {
        "analytics_service": {
          "status": 1
        },
        "cloud_messaging_service": {
          "status": 2,
          "apns_config": []
        },
        "appinvite_service": {
          "status": 2,
          "other_platform_oauth_client": [
            {
              "client_id": "714527511057-cjfrj07noq3ajgma2ovbklanhs6u6go7.apps.googleusercontent.com",
              "client_type": 3
            }
          ]
        },
        "google_signin_service": {
          "status": 2
        },
        "ads_service": {
          "status": 1
        }
      }
    }
  ],
  "client_info": [],
  "ARTIFACT_VERSION": "1"
}